{
  "shopStar": [
    {
      "id": "04f98c31-f3f9-433e-bbf0-fba6d022b391",
      "url": "#",
      "name": "DNS",
      "img": "#"
    },
    {
      "id": "04f98c31-f3f9-433e-bbf0-fba6d022b391",
      "url": "#",
      "name": "DNS",
      "img": "#"
    },
    {
      "id": "04f98c31-f3f9-433e-bbf0-fba6d022b391",
      "url": "#",
      "name": "DNS",
      "img": "#"
    },
    {
      "id": "04f98c31-f3f9-433e-bbf0-fba6d022b391",
      "url": "#",
      "name": "DNS",
      "img": "#"
    },
    {
      "id": "04f98c31-f3f9-433e-bbf0-fba6d022b391",
      "url": "#",
      "name": "DNS",
      "img": "#"
    }
  ],
  "shop": [
    {
      "id": "04f98c31-f3f9-433e-bbf0-fba6d022b391",
      "url": "#",
      "name": "DNS",
      "img": "#"
    },
    {
      "id": "598becc2-cbf0-41ee-b93a-b71ef5fe24c8",
      "url": "#",
      "name": "Лялька",
      "img": "#"
    },
    {
      "id": "86f86575-05b0-42e4-8c9e-f781d4d78bda",
      "url": "#",
      "name": "Пуська",
      "img": "#"
    },
    {
      "id": "d6b570d8-5e1a-4a0d-b0e7-5ca3056145de",
      "url": "#",
      "name": "Малыш",
      "img": "#"
    },
    {
      "id": "7289468f-0df9-4388-acc7-d8fcf13fea00",
      "url": "#",
      "name": "Черкаш",
      "img": "#"
    },
    {
      "id": "8a4f9821-55b4-4c46-a8d2-446c8da257fe",
      "url": "#",
      "name": "не Очень",
      "img": "#"
    },
    {
      "id": "7f7e0880-4549-4c5b-b0c8-5e20175fa113",
      "url": "#",
      "name": "Пушок",
      "img": "#"
    }
  ]
}